PB4A7 - Quantitative Applications for Behavioural Science - 🗓️ Week 0 Presessionals
…
We don’t have a full set of interaction terms, we still only need the one, which we can now call \(CurrentlyTreated_{it}\)

If you have more than two groups and/or more than two time periods, then this is what you should be doing

More!!

Let’s make some quick example data to show this off, with the first treated period being period 7 and the treated groups being 1 and 9, and a true effect of 3

did_data <- tibble(group = sort(rep(1:10, 10)),
                   time = rep(1:10, 10)) %>%
  mutate(CurrentlyTreated  = group %in% c(1,9) & time >= 7) %>%
  mutate(Outcome = group + time + 3*CurrentlyTreated + rnorm(100))
did_data

# A tibble: 100 × 4
   group  time CurrentlyTreated Outcome
   <int> <int> <lgl>              <dbl>
 1     1     1 FALSE               1.50
 2     1     2 FALSE               2.43
 3     1     3 FALSE               3.70
 4     1     4 FALSE               5.75
 5     1     5 FALSE               4.57
 6     1     6 FALSE               6.47
 7     1     7 TRUE               11.1 
 8     1     8 TRUE               12.6 
 9     1     9 TRUE               12.6 
10     1    10 TRUE               13.6 
# ℹ 90 more rows
…
